100062|062.12.706|ELA  FE ELIZABETH|#60 14TH ST.  ET  O.C.|9020742|14.00|1|AC|55|1|06/02/2018|06/22/2018|062018|05/02/18-06/02/18|46.44|0|06/05/2018|0|1.00|7|0||||||||||Mar=0|Apr=1|May=0|5
100062|062.12.334|ENTERINA  AUREA|#12 12TH ST.  ET  O.C.|1442695|60.00|1|AC|387|13|06/02/2018|06/22/2018|062018|05/02/18-06/02/18|233.35|0|06/05/2018|0|1.00|7|0||||||||||Mar=11|Apr=16|May=7|5
100062|062.12.377|ALOP  EDISON|#57 14TH ST.  ET  O.C.|1512793|71.00|1|AC|850|27|06/02/2018|06/22/2018|062018|05/02/18-06/02/18|-1.02|0|06/05/2018|0|1.00|4|0||||||||||Mar=28|Apr=22|May=22|5
100062|062.13.376|ALOP  MAXIMA / EMMA`S TRADING|#57 14TH ST.  ET  O.C.|11027246|71.00|1|AC|1960|23|06/02/2018|06/22/2018|062018|05/02/18-06/02/18|-0.50|0|06/05/2018|0|1.00|7|0||||||||||Mar=18|Apr=25|May=24|5
100062|062.12.375|ALOP  MICHAEL A.|#57 14TH ST. ET|726800|71.00|1|AC|1359|12|06/02/2018|06/22/2018|062018|05/02/18-06/02/18|-0.01|0|06/05/2018|0|1.00|1|0||||||||||Mar=18|Apr=7|May=13|5
100062|062.12.387|TAPAWAN  BONIFACIO|#55 14TH ST.  ET  O.C.|1313752|72.00|1|AC|772|13|06/02/2018|06/22/2018|062018|05/02/18-06/02/18|-5.10|0|06/05/2018|0|1.00|1|0||||||||||Mar=11|Apr=15|May=12|5
100062|062.12.020|OBSENA  CARMEN|#86 IRVING ST.  ET  O.C.|1615390|73.00|1|AC|455|5|06/02/2018|06/22/2018|062018|05/02/18-06/02/18|0.00|0|06/05/2018|0|1.00|4|0||||||||||Mar=6|Apr=2|May=2|5
100062|062.32.392|TAPAWAN  BONIFACIO / M#8|#55 14TH ST.  ET  O.C.|971971|74.00|3|AC|6503|12|06/02/2018|06/22/2018|062018|05/02/18-06/02/18|-1.62|0|06/05/2018|0|1.00|4|0||||||||||Mar=10|Apr=12|May=11|5
100062|062.12.390|TAPAWAN  BONIFACIO / M#6|#55 14TH ST.  ET  O.C.|971982|75.00|1|AC|5371|30|06/02/2018|06/22/2018|062018|05/02/18-06/02/18|-2.95|0|06/05/2018|0|1.00|1|0|||||||||062.12.387|Mar=28|Apr=32|May=37|5
100062|062.12.393|TAPAWAN  BONIFACIO / M#9|#55 14TH ST.  ET  O.C.|11027248|75.00|1|AC|627|8|06/02/2018|06/22/2018|062018|05/02/18-06/02/18|-0.72|0|06/05/2018|0|1.00|1|0||||||||||Mar=7|Apr=8|May=9|5