HDR1000110503420342000003420000
100011|011.32.001|1|1629907|GEDARIA / BOTASTAS  FLOCERFIDA|#27 FOSTER ST.  BN  O.C.|3|AC|483|31|20180401|-0.27|0|0|1.00|7|0||||||||||Mar=30|Apr=29|May=33|5
100011|011.12.008|2|1235233|BOTASTAS  EMILY G.|#27 FOSTER ST.  BN  O.C.|1|AC|1296|17|20180401|-0.52|0|0|1.00|4|0||||||||||Mar=19|Apr=16|May=19|5
100011|011.12.009|2|1235234|BOTASTAS  EMILY G.|#27 FOSTER ST.  BN  O.C.|1|AC|1173|5|20180401|-0.42|0|0|1.00|1|0||||||||||Mar=4|Apr=6|May=8|5
100011|011.12.010|2|1512944|VIRTUCIO  ARMANDO|# 15 LITTLE ST. NEW BANICAIN|1|AC|463|18|20180401|583.45|0|0|1.00|7|0||||||||||Mar=16|Apr=17|May=18|5
100011|011.12.064|2|358666|MOLINA  DOMINGO JR|#17 LITTLE ST. NEW BANICAIN|1|AC|9|0|20180401|-0.55|0|0|1.00|7|0||||||||||Apr=0|Mar=0|May=9|5
100011|011.12.003|3|4164|NODADO  MARCELA|#27 FOSTER ST.  BN  O.C.|1|AC|1569|14|20180401|457.71|0|0|1.00|1|0||||||||||Mar=15|Apr=14|May=14|5
100011|011.12.004|3|223196|BOTASTAS  FLOCERFIDA|#27 FOSTER ST.  BN  O.C.|1|AC|1090|9|20180401|-13.45|0|0|1.00|7|0||||||||||Mar=9|Apr=8|May=6|5
100011|011.12.006|3|1629855|BOTASTAS  FLOCERFIDA|#27 FOSTER ST.  BN  O.C.|1|AC|391|14|20180401|487.23|0|0|1.00|1|0||||||||||Mar=14|Apr=15|May=13|5
100011|011.12.007|4|27115|DE MESA  LERMA|#31-B LUNA ST.  NB|1|AC|1893|39|20180401|1304.58|0|0|1.00|7|0||||||||||Mar=32|Apr=44|May=39|5
100011|011.12.005|4|1634008|DE MESA  LERMA|#31 LUNA ST.  BN  O.C.|1|AC|210|28|20180401|2443.21|0|0|1.00|4|0||||||||||Mar=27|Apr=36|May=37|5
100011|011.12.015|4|4011223|PONCE  ANGELINA LUZ|#31 LUNA ST.  BN  O.C.|1|AC|1748|9|20180401|331.68|0|0|1.00|1|0||||||||||Mar=9|Apr=8|May=10|5
100011|011.12.016|4|720187|PONCE  ANGELINA LUZ|#31 LUNA ST.  BN|1|AC|1285|9|20180401|-0.06|0|0|1.00|7|0||||||||||Mar=10|Apr=11|May=10|5
100011|011.12.017|4|720190|PONCE  ANGELINA LUZ|#31 LUNA ST.  BN|1|AC|3827|31|20180401|2010.16|0|0|1.00|4|0||||||||||Mar=29|Apr=32|May=30|5
100011|011.12.018|4|720188|PONCE  ANGELINA LUNZ|#31 LUNA ST.  BN.|1|AC|1085|8|20180401|245.90|0|0|1.00|1|0||||||||||Mar=8|Apr=7|May=7|5
100011|011.12.027|6|9911011 AR|CANAYNAY  BLAS|#29-A LUNA ST.  BN  O.C.|1|AC|3495|19|20180401|677.49|0|0|1.00|1|0||||||||||Mar=17|Apr=19|May=21|5
100011|011.12.029|6|4008380 AC|CANAYNAY  ROBERTO|#29 LUNA ST.  BN  O.C.|1|AC|1247|6|20180401|-0.38|0|0|1.00|4|0||||||||||Mar=6|Apr=6|May=7|5
100011|011.12.030|7|638340|REYES  FERNANDO G.|#29-B LUNA  ST.  BN  O.C.|1|AC|2387|17|20180401|-22.63|0|1|1.00|1|0||||||||||Mar=16|Apr=16|May=14|5
100011|011.12.031|7|638335|REYES  FERNANDO G.|#29-B LUNA  ST.  BN  O.C.|1|AC|2808|24|20180401|-4.61|0|0|1.00|7|0||||||||||Mar=19|Apr=33|May=27|5
100011|011.12.032|7|1513914|REYES  FERNANDO G.|#29-B LUNA  ST.  BN  O.C.|1|AC|167|7|20180401|129.40|0|0|1.00|4|0||||||||||Mar=12|Apr=6|May=3|5
100011|011.12.041|8|1119371|RAMOS  AMANCIO|#27 LUNA ST.  BN  O.C.|1|AC|1949|22|20180401|677.12|0|0|1.00|4|0||||||||||Mar=19|Apr=25|May=21|5
100011|011.12.042|8|1118921|RAMOS  AMANCIO/ROMEL RAMOS|#27 LUNA ST.  BN  O.C.|1|AC|1032|6|20180401|0.00|0|0|1.00|1|0||||||||||Mar=6|Apr=6|May=11|5
100011|011.12.043|8|1127228|RAMOS  JULITA D.|#27 LUNA  ST.  BN  O.C.|1|AC|1541|17|20180401|-10.41|0|0|1.00|7|0||||||||||Mar=16|Apr=17|May=18|5
100011|011.12.044|8|1235226|RAMOS  JULITA D.|#27 LUNA ST.  NEW BANICAIN|1|AC|771|24|20180401|-0.36|0|0|1.00|4|0||||||||||Mar=22|Apr=26|May=27|5
100011|011.12.045|8|1235227|RAMOS  JULITA D.|#27 LUNA ST.  NEW BANICAIN|1|AC|2599|38|20180401|-0.55|0|0|1.00|1|0||||||||||Mar=34|Apr=41|May=37|5
100011|011.12.047|9|1623445|DANCEL  ADELA|#25 LUNA ST.  BN  O.C.|1|AC|1409|62|20180401|-0.63|0|0|1.00|4|0||||||||||Mar=61|Apr=60|May=47|5
100011|011.12.048|9|0404741 AR|MARCOS  WILMA / FRANCISCO|#25-A LUNA ST.  BN  O.C.|1|AC|3744|19|20180401|731.60|0|0|1.00|1|0||||||||||Mar=17|Apr=20|May=18|5
100011|011.12.049|9|404742|MAREAS  WILMA / FRANCISCO|#25-A LUNA ST.  BN  O.C.|1|AC|2142|8|20180401|-0.89|0|0|1.00|7|0||||||||||Mar=7|Apr=9|May=8|5
100011|011.12.050|9|404743|MAREAS  WILMA / FRANCISCO|#25-A LUNA ST.  BN  O.C.|1|AC|2532|10|20180401|-3.10|0|0|1.00|4|0||||||||||Mar=10|Apr=11|May=12|5
100011|011.12.051|9|404744|MAREAS  WILMA / FRANCISCO|#25-A LUNA ST.  BN  O.C.|1|AC|4900|30|20180401|-125.93|0|0|1.00|1|0||||||||||Mar=28|Apr=33|May=31|5
100011|011.12.052|10|614149|MANABAT  ANDRES|#23 LUNA  ST.  BN  O.C.|1|AC|398|25|20180401|788.78|0|0|1.00|7|0||||||||||Mar=23|Apr=29|May=28|5
100011|011.12.053|10|1664147|MANABAT  ANDRES|#23 LUNA  ST.  BN  O.C.|1|AC|961|69|20180401|2905.49|0|0|1.00|4|0||||||||||Mar=65|Apr=79|May=82|5
100011|011.12.054|10|223867|MANABAT  ANDRES|#23 LUNA ST.  BN  O.C.|1|AC|2928|20|20180401|400.36|0|0|1.00|1|0||||||||||Mar=18|Apr=18|May=16|5
100011|011.12.011|10|1634139|ALMIROL  IRENE V.|#23 LUNA ST. NEW BANICAIN|1|AC|301|7|20180401|-0.24|0|0|1.00|4|0||||||||||Mar=6|Apr=6|May=7|5
100011|011.12.012|10|1634136|ALMIROL  IRENE V.|#23 LUNA ST. NEW BANICAIN|1|AC|194|10|20180401|-27.09|0|0|1.00|1|0||||||||||Mar=10|Apr=11|May=17|5
100011|011.12.013|10|1634135|ALMIROL  IRENE V.|#23 LUNA ST. NEW BANICAIN|1|AC|37|1|20180401|-6.06|0|0|1.00|7|0||||||||||Mar=2|Apr=0|May=9|5
100011|011.12.056|11|17350710|MANALANSAN  JUANITA|#21 LUNA  ST.  BN  O.C.|1|AC|110|14|20180401|274.37|0|0|1.00|4|0||||||||||Mar=13|Apr=14|May=8|5
100011|011.12.057|11|17355176|MANALANSAN  JUANITA|#21 LUNA ST.  BN  O.C.|1|AC|202|23|20180401|973.66|0|1|1.00|1|0||||||||||Mar=22|Apr=23|May=21|5
100011|011.12.059|11|1606404|MANALANSAN  JUANITA|#21-A LUNA ST.  BN  O.C.|1|AC|192|5|20180401|13.19|0|0|1.00|4|0||||||||||Mar=5|Apr=6|May=6|5
100011|011.12.060|11|17350911|SALVADEA  ANTONIO / MONALISA|#21 LUNA ST. NEW BANICAIN  O.C|1|AC|104|11|20180401|0.00|0|0|1.00|1|0||||||||||Mar=11|Apr=10|May=15|5
100011|011.12.068|12|17355293|SALVADEA  CALIXTRO  JR.|#21 LUNA ST.  BN  O.C.|1|AC|170|22|20180401|-0.43|0|0|1.00|4|0||||||||||Mar=19|Apr=28|May=17|5
100011|011.12.069|12|816225|SALVADEA  CALIXTRO  JR.|#21 LUNA ST.  BN  O.C.|1|AC|1296|5|20180401|189.12|0|0|1.00|1|0||||||||||Mar=4|Apr=4|May=5|5
100011|011.12.070|13|1431532|CALIMLIM  GRACE ANN|#21 LUNA ST.  BN  O.C.|1|AC|890|39|20180401|1144.78|0|0|1.00|7|0||||||||||Mar=36|Apr=41|May=35|5
100011|011.12.066|13|17357804|CUEVAS  ERMA SAN JUAN|#21 LUNA ST. NEW BANICAIN|1|AC|4|0|20180401|160.54|0|0|1.00|1|0||||||||||Apr=0|Mar=0|May=4|5
100011|011.12.077|13|1615552|SAN JUAN  RENATO|#21 LUNA ST. NEW BANICAIN|1|AC|292|12|20180401|-28.37|0|0|1.00|4|0||||||||||Mar=11|Apr=13|May=14|5
100011|011.12.087|14|608373|BISMONTE  CONCEPCION|#19  LUNA  ST.  BN  O.C.|1|AC|1493|17|20180401|1104.99|0|0|1.00|1|0||||||||||Mar=16|Apr=16|May=18|5
100011|011.12.081|14|608375|BISMONTE  CONCEPCION|#19  LUNA  ST.  BN  O.C.|1|AC|1991|34|20180401|897.72|0|0|1.00|1|0||||||||||Mar=33|Apr=32|May=28|5
100011|011.12.082|14|608376|BISMONTE  CONCEPCION|#19  LUNA  ST.  BN  O.C.|1|AC|79|11|20180401|911.20|0|0|1.00|7|0||||||||||Mar=13|Apr=15|May=13|5
100011|011.12.083|14|608380|BISMONTE  CONCEPCION|#19  LUNA  ST.  BN  O.C.|1|AC|1968|21|20180401|-14.56|0|0|1.00|4|0||||||||||Mar=19|Apr=21|May=25|5
100011|011.12.084|14|608371|BISMONTE  CONCEPCION|#19  LUNA  ST.  BN  O.C.|1|AC|1699|11|20180401|-0.78|0|0|1.00|1|0||||||||||Mar=10|Apr=11|May=7|5
100011|011.12.075|14|9823815|SAN JUAN  DOLORES|#21 LUNA ST.  BN  O.C.|1|AC|3633|19|20180401|646.14|0|0|1.00|1|0||||||||||Mar=18|Apr=21|May=20|5
100011|011.12.090|14|932186|BISMONTE  CONCEPCION|#19  LUNA  ST.  BN  O.C.|1|AC|3678|41|20180401|0.00|0|0|1.00|1|0||||||||||Mar=84|Apr=0|May=32|5
100011|011.12.091|14|932184|BISMONTE  CONCEPCION|#19  LUNA  ST.  BN  O.C.|1|AC|756|6|20180401|217.37|0|0|1.00|7|0||||||||||Mar=5|Apr=5|May=6|5
100011|011.12.093|14|932185|BISMONTE  CONCEPCION|#19  LUNA  ST.  BN  O.C.|1|AC|1057|20|20180401|1020.75|0|0|1.00|1|0||||||||||Mar=21|Apr=19|May=12|5
100011|011.12.095|14|4162|BISMONTE  CONCEPCION|#19  LUNA  ST.  BN  O.C.|1|AC|1125|11|20180401|-0.70|0|0|1.00|4|0||||||||||Mar=11|Apr=11|May=11|5
100011|011.12.097|14|26447|BISMONTE  CONCEPCION|#19  LUNA  ST.  BN  O.C.|1|AC|786|8|20180401|106.16|0|0|1.00|7|0||||||||||Mar=7|Apr=8|May=13|5
100011|011.12.080|15|527782|JAVIER  MELY|#19 LUNA ST.  BN  O.C.|1|AC|3001|8|20180401|-4.89|0|0|1.00|4|0||||||||||Mar=8|Apr=8|May=8|5
100011|011.32.085|16|1431475|LIM  MARCELINA BELTRAN|#17 LUNA ST.  BN  O.C.|3|AC|7169|177|20180401|20770.91|0|0|1.00|7|0||||||||||Mar=161|Apr=206|May=213|5
100011|011.12.086|17|1623642|LIM  MARCELINA BELTRAN|#17 LUNA ST.  BN  O.C.|1|AC|952|43|20180401|2460.52|0|0|1.00|4|0||||||||||Mar=47|Apr=36|May=47|5
100011|011.12.089|18|1443051|LIPUMANO  MIGUEL|#15 LUNA ST.  BN  O.C.|1|AC|965|30|20180401|2153.18|0|0|1.00|4|0||||||||||Mar=26|Apr=33|May=33|5
100011|011.12.092|19|1110574|CRISTOBAL  PRECIOSO|#17-A LUNA ST.  BN  O.C.|1|AC|3414|41|20180401|1460.88|0|0|1.00|4|0||||||||||Mar=38|Apr=41|May=43|5
100011|011.12.094|20|202867|BERMUDEZ  APOLINARIO|#17-A LUNA ST  BN.  O.C.|1|AC|6675|30|20180401|-0.71|0|0|1.00|7|0||||||||||Mar=30|Apr=30|May=37|5
100011|011.12.096|21|3324|OLYMPIO AGUILAR JR.|#17 LUNA ST.  BN  O.C.|1|AC|5448|15|20180401|-30.43|0|0|1.00|1|0||||||||||Mar=13|Apr=14|May=13|5
100011|011.12.117|22|1110806|FLORES  AMELIA|#6 LUNA  ST.  BN  O.C.|1|AC|1954|17|20180401|1208.50|0|0|1.00|1|0||||||||||Mar=15|Apr=18|May=19|5
100011|011.12.118|22|615417|FLORES  AMELIA|#6 LUNA  ST.  BN  O.C.|1|AC|3937|28|20180401|1076.17|0|0|1.00|7|0||||||||||Mar=24|Apr=32|May=33|5
100011|011.12.119|22|1222243|FLORES  AMELIA|#6 LUNA ST.  BN  O.C.|1|AC|2576|46|20180401|1615.69|0|0|1.00|4|0||||||||||Mar=43|Apr=45|May=47|5
100011|011.12.120|22|520607|FLORES  AMELIA|#6 LUNA  ST.  BN  O.C.|1|AC|3859|18|20180401|-0.69|0|0|1.00|1|0||||||||||Mar=17|Apr=18|May=20|5
100011|011.12.121|22|520606|FLORES  AMELIA|#6 LUNA  ST.  BN  O.C.|1|AC|3703|25|20180401|929.40|0|1|1.00|7|0||||||||||Mar=22|Apr=28|May=29|5
100011|011.12.122|23|1131025|AWITIN  JOSE|#8 LUNA ST.  BN  O.C.|1|AC|1135|3|20180401|0.00|0|0|1.00|4|0||||||||||Mar=1|Apr=6|May=0|5
100011|011.12.130|24|222660|PRESTO  NORMA|#10 LUNA ST.  BN  O.C.|1|AC|1127|17|20180401|-0.75|0|0|1.00|7|0||||||||||Mar=19|Apr=19|May=22|5
100011|011.12.135|25|4161|EGOS  ANGELITO|#10 LUNA ST.  BN  O.C.|1|AC|2550|53|20180401|1999.23|0|0|1.00|1|0||||||||||Mar=47|Apr=50|May=57|5
100011|011.12.137|26|1437851|SULANGI  VIRGINIA|#10 LUNA ST. NEW BANICAIN|1|AC|403|9|20180401|641.17|0|0|1.00|4|0||||||||||Mar=8|Apr=10|May=9|5
100011|011.12.138|26|1615446|SULANGI  VIRGINIA|#10 LUNA ST.  BN  O.C.|1|AC|235|8|20180401|407.69|0|0|1.00|1|0||||||||||Mar=11|Apr=12|May=13|5
100011|011.12.139|26|1606738|SULANGI VIRGINIA / LUZVIMINDA|#10 LUNA ST.  BN  O.C.|1|AC|361|16|20180401|660.03|0|0|1.00|7|0||||||||||Mar=13|Apr=18|May=21|5
100011|011.12.125|26|4092212|DALIDA  EVELYN E.|#10 LUNA ST.  BN  O.C.|1|AC|5547|18|20180401|1239.74|0|0|1.00|4|0||||||||||Mar=15|Apr=18|May=20|5
100011|011.12.149|27|105075|GONZALES  PERLITA / BAUTISTA|#2-B LITTLE ST.  BN  O.C.|1|AC|6287|26|20180401|1601.79|0|0|1.00|4|0||||||||||Mar=25|Apr=23|May=26|5
100011|011.12.150|27|613915|FONSECA  ROBERTO|#2 LITTLE ST.  BN  O.C.|1|AC|1970|17|20180401|681.10|0|0|1.00|1|0||||||||||Mar=15|Apr=19|May=3|5
100011|011.72.155|27|100742|BANICAIN ELEM SCHOOL|1ST ST.   BN  O.C.|7|AC|14926|233|20180401|-0.79|0|0|1.00|4|0||||||||||Mar=246|Apr=203|May=328|5
100011|011.12.161|28|717196|COBARUBIAS  NATIVIDAD|#2 LITTLE ST.  BN  O.C.|1|AC|1624|15|20180401|510.54|0|0|1.00|4|0||||||||||Mar=14|Apr=15|May=15|5
100011|011.12.164|29|1414985|FLORES  JOYCE C.|#2 LITTLE ST.  NB   OC.|1|AC|1067|26|20180401|-0.24|0|0|1.00|4|0||||||||||Mar=22|Apr=28|May=24|5
100011|011.12.165|29|986667|FLORES  MILA|#2 LITTLE ST.  BN  O.C.|1|AC|8974|20|20180401|723.97|0|0|1.00|1|0||||||||||Mar=18|Apr=21|May=3|5
100011|011.12.167|29|1519648|FLORES  MERCEDES|#2  LITTLE  ST.  BN  O.C.|1|AC|12|2|20180401|75.10|0|0|1.00|4|0||||||||||Mar=2|Apr=0|May=0|5
100011|011.12.065|29|17359567|CRUZ  AUREA JULIET|#4 LITTLE ST.  BN  O.C.|1|AC|96|0|20180401|0.00|0|0|1.00|4|0||||||||||Apr=0|Mar=0|May=96|5
100011|011.12.174|30|1118617|DECENA  ELVIRA|#4 LITTLE ST.  BN  O.C.|1|AC|1877|17|20180401|-1119.88|0|0|1.00|1|0||||||||||Mar=18|Apr=21|May=6|5
100011|011.12.187|31|1211986|LUBONG  VIRGINIA|#6 LITTLE ST.  BN  O.C.|1|AC|2635|6|20180401|-0.71|0|0|1.00|7|0||||||||||Mar=7|Apr=4|May=0|5
100011|011.12.795|31|520635|LUBONG  VIRGINIA/ ECHON|#6 LITTLE ST.  BN  O.C.|1|AC|2242|25|20180401|-0.71|0|0|1.00|1|0||||||||||Mar=25|Apr=27|May=35|5
100011|011.12.198|32|637296|JIMENEZ  RIZALINA|#8-A LITTLE ST.  BN  O.C.|1|AC|4543|33|20180401|0.00|0|0|1.00|1|0||||||||||Mar=33|Apr=35|May=22|5
100011|011.12.200|33|1026160|DIWA  AUGUSTO|#8 LITTLE ST.  BN  O.C.|1|AC|1594|18|20180401|-0.56|0|0|1.00|4|0||||||||||Mar=12|Apr=17|May=15|5
100011|011.12.226|34|9824096|MATONDO  EVA|#17 GORDON ST.  BN  O.C.|1|AC|5079|44|20180401|-10.30|0|0|1.00|7|0||||||||||Mar=50|Apr=43|May=37|5
100011|011.12.239|35|1035496|ESCOBAR CAROLINA|#15 GORDON ST.  BN  O.C.|1|AC|1371|21|20180401|-0.11|0|0|1.00|4|0||||||||||Mar=19|Apr=22|May=21|5
100011|011.12.441|35|809967|ESCOBAR  CAROLINA E.|#15 GORDON ST.  NB|1|AC|1722|15|20180401|-0.90|0|0|1.00|1|0||||||||||Mar=14|Apr=7|May=13|5
100011|011.12.442|35|809968|ESCOBAR  CAROLINA E.|#15 GORDON ST.  NB|1|AC|1423|6|20180401|217.64|0|0|1.00|7|0||||||||||Mar=3|Apr=5|May=6|5
100011|011.12.443|35|809970|ESCOBAR  CAROLINA E.|#15 GORDON ST.  NB|1|AC|1512|15|20180401|-0.21|0|0|1.00|4|0||||||||||Mar=15|Apr=14|May=18|5
100011|011.12.444|35|809969|ESCOBAR  CAROLINA E.|#15 GORDON ST.  BN  O.C.|1|AC|1815|9|20180401|-0.84|0|0|1.00|1|0||||||||||Mar=11|Apr=4|May=6|5
100011|011.12.252|36|1627244|GILVIRO  AURELIA|#13 GORDON ST.  BN  O.C.|1|AC|575|26|20180401|1114.60|0|0|1.00|1|0||||||||||Mar=25|Apr=28|May=34|5
100011|011.12.255|37|1634015|GELVIRO  BENITO|#13 GORDON ST.  BN  O.C.|1|AC|505|32|20180401|960.58|0|0|1.00|1|0||||||||||Mar=32|Apr=33|May=30|5
100011|011.12.256|37|905316|GELVIRO  BENITO|#13 GORDON ST.  BN  O.C.|1|AC|2435|38|20180401|1114.07|0|0|1.00|7|0||||||||||Mar=35|Apr=40|May=34|5
100011|011.12.257|37|905695|GELVIRO  BENITO|#13 GORDON ST.  BN  O.C.|1|AC|1298|6|20180401|187.19|0|0|1.00|4|0||||||||||Mar=5|Apr=6|May=5|5
100011|011.12.263|38|1438104|PADILLA  EDUARDO JR.|#11 GORDON ST.  BN  O.C.|1|AC|609|16|20180401|-0.82|0|0|1.00|4|0||||||||||Mar=14|Apr=16|May=17|5
100011|011.12.264|38|0214555 AR|PADILLA  EDUARDO JR.|#11 GORDON ST.  BN  O.C.|1|AC|3152|8|20180401|-0.85|0|1|1.00|1|0||||||||||Mar=15|Apr=2|May=5|5
100011|011.12.265|38|222590|PADILLA  EDUARDO JR.|#11 GORDON ST.  BN  O.C.|1|AC|861|4|20180401|-0.14|0|0|1.00|7|0||||||||||Mar=6|Apr=5|May=5|5
100011|011.12.266|38|221380|PADILLA  LETICIA|#11 GORDON ST.  BN  O.C.|1|AC|553|15|20180401|-0.10|0|0|1.00|4|0||||||||||Mar=14|Apr=12|May=13|5
100011|011.12.278|39|41447|ORLANDA  MARY MALABANAN|#9 GORDON ST.  BN  O.C.|1|AC|4180|25|20180401|-0.70|0|0|1.00|4|0||||||||||Mar=23|Apr=23|May=10|5
100011|011.12.279|39|638320|ORLANDA  MARY MALABANAN|#9 GORDON ST.  BN  O.C.|1|AC|1635|12|20180401|-0.36|0|0|1.00|1|0||||||||||Mar=13|Apr=11|May=18|5
100011|011.12.280|39|637310|ORLANDA  MARY MALABANAN|#9 GORDON ST.  BN  O.C.|1|AC|697|3|20180401|-0.94|0|0|1.00|7|0||||||||||Mar=1|Apr=5|May=11|5
100011|011.12.291|40|1430652|NAVAL  RAYMUNDA|#7 GORDON ST.  BN  O.C.|1|AC|253|6|20180401|-0.89|0|0|1.00|1|0||||||||||Mar=6|Apr=6|May=5|5
100011|011.12.298|41|1606884|VIRAY  ROSALIA|#5 GORDON ST.  BN  O.C.|1|AC|152|21|20180401|938.14|0|0|1.00|7|0||||||||||Mar=20|Apr=20|May=20|5
100011|011.12.299|41|625766|VIRAY  ROSALIA|#5 GORDON ST.  BN  O.C.|1|AC|2221|10|20180401|273.60|0|0|1.00|4|0||||||||||Mar=10|Apr=11|May=8|5
100011|011.12.305|42|11026297|MAPANOO  NORMA|#3 GORDON ST.  BN  O.C.|1|AC|2319|16|20180401|0.00|0|0|1.00|4|0||||||||||Mar=16|Apr=16|May=16|5
100011|011.12.314|43|1606923|VANTA  VIRGINIA|#1 GORDON ST.  BN  O.C.|1|AC|1450|66|20180401|4793.88|0|0|1.00|4|0||||||||||Mar=62|Apr=62|May=71|5
100011|011.12.316|44|350995|ELAMPARO  FERNANDO|#1 GORDON ST.  BN  O.C.|1|AC|73|38|20180401|2289.34|0|1|1.00|7|0||||||||||Mar=48|Apr=30|May=39|5
100011|011.12.105|45|9020020|MORATIN  JOCELYN L.|#4 LUNA ST.  NB|1|AC|568|18|20180401|-0.71|0|0|1.00|1|0||||||||||Mar=16|Apr=20|May=19|5
100011|011.12.106|45|1512898|MORATIN  ENGRACIO|#4 LUNA ST.  BN  O.C.|1|AC|398|23|20180401|-1451.84|0|0|1.00|7|0||||||||||Mar=24|Apr=17|May=16|5
100011|011.12.326|46|1512671|SAPILAN  SOREYDA M.|#2 - B LUNA ST.  NEW BANICAIN|1|AC|330|18|20180401|1.61|0|0|1.00|4|0||||||||||Mar=16|Apr=1|May=0|5
100011|011.12.327|46|1512672|SAPILAN  SOREYDA M.|#2 - C LUNA ST.  NEW BANICAIN|1|AC|265|11|20180401|488.47|0|0|1.00|1|0||||||||||Mar=10|Apr=14|May=15|5
100011|011.12.328|46|327714|SAPILAN  SOREYDA M.|#2 LUNA ST.  NB|1|AC|1487|38|20180401|-432.17|0|0|1.00|7|0||||||||||Mar=50|Apr=33|May=19|5
100011|011.12.334|47|1313626|ASUNCION  RUBEN|#2 GORDON  ST.  BN  O.C.|1|AC|2417|27|20180401|1428.73|0|0|1.00|7|0||||||||||Mar=26|Apr=32|May=27|5
100011|011.12.335|47|1313755|ASUNCION  RUBEN|#2 GORDON ST.  BN  O.C.|1|AC|2940|28|20180401|-29.37|0|1|1.00|4|0||||||||||Mar=27|Apr=25|May=19|5
100011|011.12.336|47|1429258|BLOOD  FREDELIZA N.|#2 GORDON ST.  BN  O.C.|1|AC|1655|27|20180401|771.81|0|0|1.00|1|0||||||||||Mar=27|Apr=27|May=24|5
100011|011.12.337|47|1513770|ASUNCION  DESERIE|#2 GORDON ST.  BN  O.C.|1|AC|608|28|20180401|939.78|0|0|1.00|7|0||||||||||Mar=26|Apr=29|May=25|5
100011|011.12.023|47|1700324|NAVALTA  FREDELIZA|#2 GORDON ST. NEW BANICAIN|1|AC|280|19|20180401|-12.05|0|0|1.00|4|0||||||||||Mar=19|Apr=21|May=21|5
100011|011.12.346|48|304026|UNATING  RAFAEL|#4 GORDON ST.  BN  O.C.|1|AC|3488|12|20180401|-0.61|0|0|1.00|7|0||||||||||Mar=11|Apr=13|May=14|5
100011|011.12.347|49|0304069 A|MALAON  GLORIA M.|#4-B GORDON ST.  BN  O.C.|1|AC|3003|11|20180401|-0.57|0|0|1.00|4|0||||||||||Mar=13|Apr=5|May=0|5
100011|011.12.348|49|520443|MALAON  GLORIA M.|#4-B GORDON ST.  BN  O.C.|1|AC|1995|19|20180401|-0.25|0|0|1.00|1|0||||||||||Mar=19|Apr=20|May=20|5
100011|011.12.349|49|520445|MALAON  GLORIA M.|#4-B GORDON ST.  BN  O.C.|1|AC|2775|17|20180401|627.06|0|0|1.00|7|0||||||||||Mar=14|Apr=20|May=20|5
100011|011.12.350|49|520447|MALAON  GLORIA M.|#4-B GORDON ST.  BN  O.C.|1|AC|2695|15|20180401|520.43|0|0|1.00|4|0||||||||||Mar=14|Apr=15|May=16|5
100011|011.12.351|49|520446|MALAON  GLORIA M.|#4-B GORDON ST.  BN  O.C.|1|AC|2292|7|20180401|518.61|0|0|1.00|1|0||||||||||Mar=7|Apr=8|May=7|5
100011|011.12.385|49|520597|AQUINO  ESTELITA|#1 GORDON ST.  BN  O.C.|1|AC|3788|25|20180401|865.81|0|0|1.00|7|0||||||||||Mar=29|Apr=27|May=27|5
100011|011.12.343|49|1130912|MALAZARTE  ABEGAILSPENCER|#4  GORDON ST.  BN  O.C.|1|AC|1054|15|20180401|1059.02|0|0|1.00|7|0||||||||||Mar=15|Apr=16|May=16|5
100011|011.12.344|49|1130913|MALAZARTE  ABEGAIL/SPENCER|#4  GORDON ST.  BN  O.C.|1|AC|918|14|20180401|940.54|0|0|1.00|4|0||||||||||Mar=13|Apr=14|May=15|5
100011|011.12.345|49|1130914|MALAZARTE  ABEGAIL/SPENCER|#4  GORDON ST.  BN  O.C.|1|AC|3534|61|20180401|2196.55|0|0|1.00|1|0||||||||||Mar=57|Apr=66|May=62|5
100011|011.12.378|50|11026298|LUMANTA  TERESITA|#4-A GORDON ST.  BN  O.C.|1|AC|845|7|20180401|-0.54|0|0|1.00|1|0||||||||||Mar=2|Apr=10|May=18|5
100011|011.12.389|51|222687|SAPILAN  VIRGILIO|#6 GORDON ST.  BN  O.C.|1|AC|2003|29|20180401|89.36|0|0|1.00|4|0||||||||||Mar=28|Apr=27|May=26|5
100011|011.12.390|51|221804|SAPILAN  VIRGILIO / CAVA|#6 GORDON ST.  BN  O.C.|1|AC|929|14|20180401|1016.52|0|0|1.00|1|0||||||||||Mar=14|Apr=13|May=18|5
100011|011.12.391|51|405109|SAPILAN  VIRGILIO / CAVA|#6 GORDON ST.  BN  O.C.|1|AC|2514|8|20180401|-0.21|0|0|1.00|7|0||||||||||Mar=8|Apr=7|May=8|5
100011|011.12.392|51|1606855|SAPILAN  SOREYDA M.|#6 GORDON ST.  BN  O.C.|1|AC|294|12|20180401|-0.54|0|0|1.00|4|0||||||||||Mar=13|Apr=10|May=14|5
100011|011.12.386|51|221590|SAPILAN  SOREYDA M.|#6-D GORDON ST.  BN  O.C.|1|AC|1102|16|20180401|23.96|0|0|1.00|4|0||||||||||Mar=14|Apr=18|May=15|5
100011|011.12.394|51|223212|BARAN  ALMA D.|#6 GORDON ST.  BN  O.C.|1|AC|2275|66|20180401|2494.06|0|0|1.00|7|0||||||||||Mar=61|Apr=74|May=70|5
100011|011.12.356|52|14314130|RAMOS  DANIEL|#3-A GORDON ST.  BN  O.C.|1|AC|2234|62|20180401|0.00|0|0|1.00|4|0||||||||||Mar=56|Apr=64|May=61|5
100011|011.12.357|52|601753|RAMOS  PRESCILA E./MEJOS  SHIELA|#3 GORDON ST.  BN  O.C.|1|AC|1268|5|20180401|0.00|0|0|1.00|1|0||||||||||Mar=5|Apr=5|May=4|5
100011|011.12.366|53|1629851|UNAWA  FLORDELIZA A.|#1-A GORDON ST.  BN  O.C.|1|AC|444|47|20180401|-250.85|0|0|1.00|1|0||||||||||Mar=45|Apr=50|May=46|5
100011|011.12.367|53|39244|ASISTIO  MARINA / ASISTIO  E.|#1-A GORDON ST.  BN  O.C.|1|AC|3704|66|20180401|1994.41|0|0|1.00|7|0||||||||||Mar=60|Apr=66|May=57|5
100011|011.12.368|53|223172|ASISTIO  CONEGUNDA|#1 GORDON ST.  BN  O.C.|1|AC|707|10|20180401|-8.95|0|0|1.00|4|0||||||||||Mar=9|Apr=14|May=24|5
100011|011.12.374|55|221047|CAHALCO  LILIA|#4-A GORDON ST.  BN  O.C.|1|AC|3699|55|20180401|0.00|0|0|1.00|4|0||||||||||Mar=51|Apr=51|May=49|5
100011|011.12.387|56|17350|MADLANGBAYAN  SEGUNDO|#6 GORDON ST.  BN  O.C.|1|AC|189|21|20180401|-1.78|0|0|1.00|1|0||||||||||Mar=21|Apr=19|May=18|5
100011|011.12.388|56|431520|MADLANGBAYAN  SEGUNDO|#6 GORDON ST.  BN  O.C.|1|AC|4603|24|20180401|-16.58|0|0|1.00|7|0||||||||||Mar=24|Apr=27|May=29|5
100011|011.12.395|57|0327668 AR|PINEDA  GEORGE|#7-A GORDON ST.  BN  O.C.|1|AC|5590|44|20180401|1191.46|0|0|1.00|4|0||||||||||Mar=42|Apr=43|May=36|5
100011|011.12.396|57|4167|PINEDA  GEORGE|#7-A GORDON ST.  BN  O.C.|1|AC|1972|20|20180401|331.37|0|0|1.00|1|0||||||||||Mar=19|Apr=22|May=10|5
100011|011.12.393|57|434536|PINEDA  ARTURO|#7-A GORDON ST.  BN  O.C.|1|AC|9361|40|20180401|1307.15|0|0|1.00|1|0||||||||||Mar=38|Apr=42|May=39|5
100011|011.12.414|58|17360978|JUECO  RODEO / JORGE  LORINA|#10 GORDON ST.  BN  O.C.|1|AC|32|10|20180401|583.45|0|0|1.00|1|0||||||||||Mar=7|Apr=18|May=18|5
100011|011.12.400|58|1634054|BAUL  MIGUEL|#8 GORDON ST.  BN  O.C.|1|AC|396|26|20180401|998.18|0|0|1.00|7|0||||||||||Mar=23|Apr=30|May=31|5
100011|011.12.401|58|521018|BAUL  MIGUEL|#8 GORDON ST.  BN  O.C.|1|AC|2261|22|20180401|426.31|0|0|1.00|4|0||||||||||Mar=15|Apr=31|May=14|5
100011|011.12.402|58|608859|BAUL  MIGUEL|#1 GORDON ST.  BN  O.C.|1|AC|2910|13|20180401|582.76|0|0|1.00|1|0||||||||||Mar=13|Apr=15|May=18|5
100011|011.12.403|58|608868|BAUL  MIGUEL|#8 GORDON ST.  BN  O.C.|1|AC|2058|17|20180401|-0.70|0|0|1.00|7|0||||||||||Mar=13|Apr=14|May=15|5
100011|011.12.413|59|1627341|JUECO  MARIO|#10 GORDON ST.  BN  O.C.|1|AC|553|27|20180401|-0.98|0|0|1.00|4|0||||||||||Mar=26|Apr=26|May=29|5
100011|011.12.415|60|1100941|JUECO  RODEO|#10 GORDON ST.  BN  O.C.|1|AC|1418|16|20180401|394.87|0|0|1.00|7|0||||||||||Mar=21|Apr=13|May=12|5
100011|011.12.419|61|1233137|GALICIA  ROMEO|#12 GORDON ST.  BN  O.C.|1|AC|816|12|20180401|390.50|0|0|1.00|4|0||||||||||Mar=12|Apr=14|May=12|5
100011|011.12.420|62|17359255|ORTIZ  MANUEL|#12 GORDON ST.  BN  O.C.|1|AC|36|11|20180401|41.57|0|0|1.00|1|0||||||||||Mar=11|Apr=11|May=12|5
100011|011.12.421|62|1419819|ORTIZ  MANUEL / CECILIA|#12 GORDON ST.  BN  O.C.|1|AC|576|16|20180401|549.42|0|0|1.00|7|0||||||||||Mar=17|Apr=15|May=17|5
100011|011.12.426|63|11026299|ROBLES  PEDRO|#14-A GORDON ST.  BN  O.C.|1|AC|562|4|20180401|-100.53|0|0|1.00|1|0||||||||||Mar=4|Apr=8|May=0|5
100011|011.12.427|64|202805|DUMLAO  SALVADOR|#14-B GORDON ST.  BN  O.C.|1|AC|384|28|20180401|-20.41|0|0|1.00|7|0||||||||||Mar=26|Apr=30|May=34|5
100011|011.12.439|65|801994|BANDOY  ISIDRO/JUANITA|#15-A GORDON ST.  NB|1|AC|2057|16|20180401|-0.06|0|0|1.00|7|0||||||||||Mar=17|Apr=15|May=22|5
100011|011.12.440|65|11026118|BANDOY  JUANITA|#15 GORDON ST.  BN  O.C.|1|AC|308|12|20180401|-0.74|0|0|1.00|4|0||||||||||Mar=12|Apr=14|May=9|5
100011|011.12.447|66|1222233|MUN  NICOLAS/MUN  EDITHA A.|#16 GORDON ST.  NB|1|AC|577|7|20180401|-0.29|0|0|1.00|1|0||||||||||Mar=7|Apr=7|May=6|5
100011|011.12.448|66|112082|MUN  NICOLAS|#16 GORDON ST.  BN  O.C.|1|AC|4723|6|20180401|-26.04|0|0|1.00|7|0||||||||||Mar=6|Apr=6|May=8|5
100011|011.12.449|66|801791|NICOLAS  PRUDENCIO|#16 GORDON ST.  BN  O.C.|1|AC|2027|13|20180401|976.03|0|0|1.00|4|0||||||||||Mar=13|Apr=14|May=16|5
100011|011.12.450|66|801715|NICOLAS  PRUDENCIO|#16 GORDON ST.  BN  O.C.|1|AC|2042|18|20180401|-0.85|0|0|1.00|1|0||||||||||Mar=16|Apr=19|May=18|5
100011|011.12.451|66|801797|NICOLAS  PRUDENCIO|#16 GORDON ST.  BN  O.C.|1|AC|1957|20|20180401|-0.45|0|0|1.00|7|0||||||||||Mar=18|Apr=21|May=19|5
100011|011.12.453|66|801794|NICOLAS  PRUDENCIO|#16 GORDON ST.  BN  O.C.|1|AC|976|8|20180401|-1.78|0|0|1.00|1|0||||||||||Mar=8|Apr=9|May=5|5
100011|011.12.454|67|220690|LANDERO  RHODORA|#17 GORDON ST.  BN  O.C.|1|AC|5272|48|20180401|2157.62|0|0|1.00|7|0||||||||||Mar=45|Apr=53|May=64|5
100011|011.12.455|67|4008144|LANDERO  RHODORA|#17-B GORDON ST.  BN  O.C.|1|AC|2204|7|20180401|587.37|0|0|1.00|4|0||||||||||Mar=7|Apr=9|May=12|5
100011|011.12.452|67|310422|LANDERO  ESTEBAN|#17 GORDON ST.  BN  O.C.|1|AC|3890|23|20180401|771.86|0|0|1.00|4|0||||||||||Mar=20|Apr=28|May=24|5
100011|011.12.241|67|0230930 AR|ORIBIANA  ZENAIDA|#17 GORDON ST.  BN  O.C.|1|AC|5039|19|20180401|-0.57|0|0|1.00|7|0||||||||||Mar=16|Apr=21|May=19|5
100011|011.12.242|67|809717|LANDERO  RANDY|#17 GORDON ST.  NB|1|AC|1405|16|20180401|-0.40|0|0|1.00|4|0||||||||||Mar=14|Apr=17|May=16|5
100011|011.12.470|68|0506585 AR|RAMIREZ  JANETH|#16-A GORDON ST.  BN  O.C.|1|AC|4822|70|20180401|2039.32|0|0|1.00|4|0||||||||||Mar=69|Apr=72|May=58|5
100011|011.12.492|69|435161|TORRES  ALBINA|#21 GORDON ST.  BN  O.C.|1|AC|102|47|20180401|2535.58|0|0|1.00|1|0||||||||||Mar=13|Apr=92|May=59|5
100011|011.12.493|69|130485|TORRES  LUZVIMINDA|#21 GORDON ST.  BN  O.C.|1|AC|3171|30|20180401|-0.41|0|0|1.00|7|0||||||||||Mar=28|Apr=29|May=25|5
100011|011.12.495|69|221042|TORRES  LUZVIMINDA / ALMA|#21 GORDON ST.  BN  O.C.|1|AC|2205|46|20180401|1885.29|0|0|1.00|1|0||||||||||Mar=43|Apr=52|May=54|5
100011|011.12.496|69|221044|TORRES  ALMA|#21 GORDON ST.  NB|1|AC|1828|36|20180401|2312.81|0|0|1.00|7|0||||||||||Mar=34|Apr=34|May=36|5
100011|011.12.497|69|221805|TORRES  ALBINA/ALMA|#21 GORDON ST.  NB|1|AC|2018|45|20180401|-0.98|0|0|1.00|4|0||||||||||Mar=36|Apr=41|May=37|5
100011|011.12.509|70|716841|MORATIN  LILIA|#22 GORDON ST.  BN  O.C.|1|AC|2110|17|20180401|-0.40|0|0|1.00|4|0||||||||||Mar=19|Apr=17|May=16|5
100011|011.32.504|70|1437772|VITUG  LUVIMIN|#20 GORDON ST.  BN  O.C.|3|AC|4358|96|20180401|-66.70|0|0|1.00|1|0||||||||||Mar=82|Apr=100|May=93|5
100011|011.32.505|70|1110576|PACHO  REYNALDO|#20 GORDON ST.  BN  O.C.|3|AC|5750|61|20180401|2389.41|0|0|1.00|7|0||||||||||Mar=55|Apr=67|May=53|5
100011|011.12.861|71|1443301|SINGQUE  PACIFICO|#22-B GORDON ST   NB  O.C.|1|AC|1724|34|20180401|-0.49|0|0|1.00|1|0||||||||||Mar=31|Apr=33|May=32|5
100011|011.12.518|71|1233708|ATIENZA  JESUS|#22 GORDON ST. BN  O.C.|1|AC|2094|35|20180401|1770.02|0|0|1.00|4|0||||||||||Mar=32|Apr=42|May=51|5
100011|011.12.519|71|608632|SINGQUE  PERLA/PACIFICO|#22 GORDON ST.  NEW BANICAIN|1|AC|2315|22|20180401|-0.45|0|0|1.00|1|0||||||||||Mar=21|Apr=19|May=18|5
100011|011.12.526|73|17358048|DIONES  CHRISTOPHER|#25-A GORDON ST.  BN  O.C.|1|AC|157|40|20180401|1241.63|0|0|1.00|7|0||||||||||Mar=38|Apr=39|May=34|5
100011|011.12.527|73|1304268|OLANO  RAYMUNDO|#25 GORDON ST.  BN  O.C.|1|AC|349|10|20180401|302.72|0|0|1.00|4|0||||||||||Mar=9|Apr=12|May=9|5
100011|011.12.528|73|11026113|OLANO  RAYMUNDO / DIONES  A.|#25 GORDON ST.  BN  O.C.|1|AC|1491|21|20180401|-12.70|0|0|1.00|1|0||||||||||Mar=20|Apr=20|May=21|5
100011|011.12.529|73|1313733|OLANO  RAYMUNDO / DIONES  B.|#25-A GORDON ST.  NB  O.C.|1|AC|499|8|20180401|-0.34|0|0|1.00|7|0||||||||||Mar=8|Apr=8|May=9|5
100011|011.12.530|73|17359977|OLANO  RAYMUNDO|#25 GORDON ST.  BN  O.C.|1|AC|29|19|20180401|582.97|0|0|1.00|4|0||||||||||Mar=15|Apr=11|May=18|5
100011|011.12.063|73|17358675|AQUINO  GINA D.|#25-A GORDON ST.  BN  O.C.|1|AC|0|0|20180401|45.89|0|0|1.00|1|0||||||||||Mar=0|Apr=0|May=0|5
100011|011.12.531|74|355301|PASTOR  SEGUNDO|#24 GORDON ST.  BN  O.C.|1|AC|303|34|20180401|-0.03|0|0|1.00|1|0||||||||||Mar=28|Apr=35|May=48|5
100011|011.12.545|75|09020186|ZULUETA  CRISTINA|#26-B GORDON ST.  BN  O.C.|1|AC|711|23|20180401|-21.44|0|0|1.00|4|0||||||||||Mar=23|Apr=26|May=23|5
100011|011.12.546|75|809741|ZULUETA  NESTOR|#26-B GORDON ST.  BN  O.C.|1|AC|6159|71|20180401|-0.12|0|0|1.00|1|0||||||||||Mar=65|Apr=74|May=65|5
100011|011.12.547|76|223911|ILLUSTRISIMO  JOSE|#26 GORDON ST.  BN  O.C.|1|AC|649|3|20180401|-0.31|0|0|1.00|7|0||||||||||Mar=3|Apr=1|May=3|5
100011|011.12.550|77|960156|GIRON  NOLI|#26 GORDON ST.  BN  O.C.|1|AC|3509|28|20180401|-3.26|0|0|1.00|7|0||||||||||Mar=26|Apr=29|May=25|5
100011|011.12.557|78|520496|RAZON  PEDRO|#28 GORDON ST.  BN  O.C.|1|AC|2100|13|20180401|-0.46|0|0|1.00|4|0||||||||||Mar=10|Apr=16|May=13|5
100011|011.12.570|79|900043|BELTRAN  NICANOR|#30 GORDON ST.  BN  O.C.|1|AC|3096|49|20180401|1963.18|0|0|1.00|1|0||||||||||Mar=48|Apr=48|May=56|5
100011|011.12.571|79|0112267 AR|BELTRAN  JESUS / DALIDA  R.|#30 GORDON ST.  BN  O.C.|1|AC|1895|10|20180401|-31.05|0|0|1.00|7|0||||||||||Mar=10|Apr=9|May=11|5
100011|011.12.572|79|327996|BELTRAN  JESUS / LEONORA|#30 GORDON ST.  BN  O.C.|1|AC|3344|19|20180401|645.69|0|0|1.00|4|0||||||||||Mar=18|Apr=20|May=20|5
100011|011.12.573|79|527910|BELTRAN  LEONORA|#30 GORDON  ST.  BN  O.C.|1|AC|2318|17|20180401|-0.97|0|0|1.00|1|0||||||||||Mar=15|Apr=18|May=17|5
100011|011.12.574|79|726817|BELTRAN  LEONORA|#30 GORDON ST.  NB|1|AC|2643|45|20180401|2001.72|0|0|1.00|7|0||||||||||Mar=40|Apr=51|May=57|5
100011|011.12.575|80|1233710|BELTRAN  J. / BELTRAN  L.|#30 GORDON ST.  BN  O.C.|1|AC|2991|50|20180401|1576.09|0|0|1.00|4|0||||||||||Mar=49|Apr=55|May=46|5
100011|011.12.576|80|822670|BELTRAN  JESUS / MAGNO  A.|#30 GORDON ST.  BN  O.C.|1|AC|2440|43|20180401|1539.91|0|0|1.00|1|0||||||||||Mar=36|Apr=50|May=45|5
100011|011.12.579|81|822615|CUSTODIO  PACENCIA|#32 GORDON ST.  BN  O.C.|1|AC|4498|54|20180401|2116.57|0|0|1.00|1|0||||||||||Mar=49|Apr=59|May=60|5
100011|011.12.580|81|223332|CUSTODIO  BELEN / PACENCIA|#32 GORDON ST.  BN  O.C.|1|AC|1892|40|20180401|3121.58|0|0|1.00|7|0||||||||||Mar=35|Apr=38|May=52|5
100011|011.12.582|81|1519773|CUSTODIO  PASENCIA C.|#32 GORDON ST.  NB  O.C.|1|AC|1081|43|20180401|1229.74|0|0|1.00|1|0||||||||||Mar=41|Apr=46|May=37|5
100011|011.12.583|82|1222028|CUSTODIO  BELEN|#32 GORDON ST.  BN  O.C.|1|AC|1499|27|20180401|605.12|0|0|1.00|7|0||||||||||Mar=24|Apr=29|May=21|5
100011|011.12.585|83|1026721|ADONA  PEPITO|#32-A GORDON ST.  BN  O.C.|1|AC|3131|22|20180401|738.24|0|0|1.00|1|0||||||||||Mar=15|Apr=30|May=23|5
100011|011.12.586|83|1128107|ADONA  PEPITO|#32 GORDON ST.  BN  O.C.|1|AC|1320|15|20180401|-0.13|0|0|1.00|7|0||||||||||Mar=14|Apr=16|May=10|5
100011|011.12.014|83|1633961|ADONA  GERONIMO|#32 GORDON ST.  NB|1|AC|304|23|20180401|-0.51|0|0|1.00|4|0||||||||||Mar=23|Apr=23|May=24|5
100011|011.12.019|83|1633962|ADONA  GERONIMO|#32 GORDON ST.  NB|1|AC|78|6|20180401|0.00|0|0|1.00|7|0||||||||||Mar=6|Apr=7|May=9|5
100011|011.12.592|84|339353|JORNALES  ORDANIETA|#34  GORDON ST.  BN  O.C.|1|AC|3166|23|20180401|1991.07|0|1|1.00|7|0||||||||||Mar=21|Apr=24|May=36|5
100011|011.12.593|84|327230|JORNALES  ORDONIETA|#34 GORDON ST.  BN  O.C.|1|AC|6070|22|20180401|1493.29|0|0|1.00|4|0||||||||||Mar=23|Apr=22|May=24|5
100011|011.12.594|84|17358133|JORNALES  ORDANIETA|#34 GORDON ST.  BN  O.C.|1|AC|4|66|20180401|2396.39|0|0|1.00|1|0||||||||||Mar=91|Apr=54|May=67|5
100011|011.12.595|84|17360977|JORNALES  ORDANIETA|#34 GORDON ST.  BN  O.C.|1|AC|3|2|20180401|71.58|0|0|1.00|7|0||||||||||Mar=2|Apr=2|May=1|5
100011|011.12.596|84|0836835 AR|BUENO  DOMINGO|#34 GORDON ST.  BN  O.C.|1|AC|1192|9|20180401|-0.01|0|0|1.00|4|0||||||||||Mar=8|Apr=11|May=10|5
100011|011.12.597|85|17350608|BUENO  DOMINGO / LEGASPI|#34 GORDON ST.  BN  O.C.|1|AC|369|38|20180401|0.00|0|0|1.00|1|0||||||||||Mar=34|Apr=39|May=38|5
100011|011.12.598|86|1606665|JORNALES  ORDONIETA|#34 GRODON ST NEW BANICAIN|1|AC|611|13|20180401|1144.63|0|0|1.00|7|0||||||||||Mar=12|Apr=17|May=18|5
100011|011.12.603|86|1329350|RAGAZA  ROBERTO/ PABLO  ESPERANZA|#33 GORDON ST.  BN  O.C.|1|AC|987|16|20180401|389.24|0|0|1.00|1|0||||||||||Mar=14|Apr=19|May=12|5
100011|011.12.604|86|230519|RAGAZA  ROSARIO|#33 GORDON ST.  BN  O.C.|1|AC|5209|26|20180401|-0.46|0|0|1.00|7|0||||||||||Mar=25|Apr=28|May=29|5
100011|011.12.605|86|4011375|RAGAZA  ANGELINA|#33 GORDON ST.  BN  O.C.|1|AC|2417|8|20180401|0.67|0|0|1.00|4|0||||||||||Mar=8|Apr=8|May=9|5
100011|011.12.606|86|17359978|RAGAZA  ROSARIO|#33 GORDON ST.  NEW BANICAIN  O.C.|1|AC|14|8|20180401|91.00|0|0|1.00|1|0||||||||||Mar=7|Apr=11|May=9|5
100011|011.12.607|86|1019795|RAGAZA  ROSARIO|#32 GORDON ST.  BN  O.C.|1|AC|3537|42|20180401|1307.23|0|0|1.00|7|0||||||||||Mar=39|Apr=46|May=39|5
100011|011.12.613|87|836957|SERAFIN  GLORIA|#36 GORDON ST.  BN  O.C.|1|AC|4392|61|20180401|-0.74|0|0|1.00|7|0||||||||||Mar=48|Apr=66|May=66|5
100011|011.12.625|87|1233730|ISIP  MERCEDES/EUGENIO|#35-B GORDON ST.  BN|1|AC|8598|168|20180401|6162.48|0|0|1.00|7|0||||||||||Mar=158|Apr=184|May=159|5
100011|011.12.624|88|1221920|ISIP  MERCEDES|#35-B GORDON ST.  BN  O.C.|1|AC|2459|193|20180401|-0.82|0|0|1.00|1|0||||||||||Jun=171|Jul=188|Sep=134|5
100011|011.12.629|89|1519784|MAGDAY  LUZVIMINDA|#38 GORDON ST. BANICAIN|1|AC|508|21|20180401|-0.27|0|0|1.00|4|0||||||||||Mar=21|Apr=23|May=27|5
100011|011.12.630|89|4008324|BEDIA  ERLINDA / MADLANGBAYAN|#38 GORDON ST.  NB  O.C.|1|AC|9529|78|20180401|-0.91|0|0|1.00|1|0||||||||||Mar=75|Apr=80|May=74|5
100011|011.12.634|89|1233703|VILLAREAL  CELESTINO|#38 GORDON ST.  BN  O.C.|1|AC|2342|32|20180401|-0.75|0|0|1.00|7|0||||||||||Mar=30|Apr=37|May=30|5
100011|011.12.636|90|320159|BUNA  CRESCENCIANO|#38 GORDON ST.  BN  O.C.|1|AC|7184|40|20180401|-0.33|0|0|1.00|1|0||||||||||Mar=39|Apr=41|May=46|5
100011|011.12.643|91|1127235|TEOFILO  ROBERTO|#34 GORDON ST.  BN  O.C.|1|AC|947|13|20180401|-8.72|0|0|1.00|7|0||||||||||Mar=13|Apr=13|May=14|5
100011|011.12.647|91|1126899|ARARACAP  ADELINA|#38  GORDON ST.  BN  O.C.|1|AC|2513|40|20180401|1627.24|0|0|1.00|4|0||||||||||Mar=37|Apr=40|May=34|5
100011|011.12.649|91|17356808|ARARACAP  ALFONSO|#38 GORDON ST.  BN  O.C.|1|AC|31|5|20180401|217.46|0|0|1.00|7|0||||||||||Mar=5|Apr=5|May=6|5
100011|011.12.650|91|1606441|ARARACAP  ALFONSO / ROSALINDA ARARACAP|38 GORDON ST. NEW BANICAIN|1|AC|1112|32|20180401|961.31|0|0|1.00|4|0||||||||||Mar=31|Apr=35|May=30|5
100011|011.12.022|91|1677930|ARARACAP  ORLANDO|#36 GORDON ST.  BN  O.C.|1|AC|357|28|20180401|-15.11|0|0|1.00|7|0||||||||||Mar=25|Apr=29|May=28|5
100011|011.12.652|93|705627|CUSTODIO  CARLITO|#38 GORDON ST.  BN  O.C.|1|AC|4900|41|20180401|274.16|0|0|1.00|7|0||||||||||Feb=46|Mar=22|May=8|5
100011|011.12.653|93|1606740|CUSTODIO  CARLITO A.|#38 GORDON ST.  BN  O.C.|1|AC|280|9|20180401|-0.55|0|0|1.00|4|0||||||||||Mar=10|Apr=11|May=18|5
100011|011.12.655|94|4089103|DRAPIZA  LEONILLY / SONE  JOSE|#38-A GORDON ST.  NB  O.C.|1|AC|3522|42|20180401|1477.25|0|0|1.00|7|0||||||||||Mar=42|Apr=46|May=48|0
100011|011.32.654|94|1314271|DRAPIZA  GREGORIO|#38-A GORDON ST.  BN  O.C.|3|AC|1715|20|20180401|1071.50|0|0|1.00|1|0||||||||||Mar=19|Apr=24|May=23|5
100011|011.12.666|95|1700078|MANALO  EMILIANO|#40 GORDON ST.  BN  O.C.|1|AC|28|2|20180401|88.87|0|0|1.00|1|0||||||||||Mar=2|Apr=3|May=2|5
100011|011.12.661|96|1026159|INCLETO  CRISOSTOMO|#40 GORDON ST.  BN  O.C.|1|AC|8809|133|20180401|4338.65|0|0|1.00|7|0||||||||||Mar=123|Apr=137|May=115|5
100011|011.12.678|97|1430910|TAMORO  VIRGILIO|#40 GORODN ST.  BN  O.C.|1|AC|676|7|20180401|-0.46|0|0|1.00|1|0||||||||||Mar=3|Apr=0|May=7|5
100011|011.12.680|98|1634011|DIZON  AMALIA E.|#12 GORDON ST.  BN  O.C.|1|AC|520|39|20180401|1189.58|0|0|1.00|4|0||||||||||Mar=42|Apr=37|May=36|5
100011|011.12.681|98|1606065|DIZON  AMELIA E.|#42 GORDON ST.  BN  O.C.|1|AC|702|43|20180401|1230.42|0|0|1.00|1|0||||||||||Mar=44|Apr=42|May=37|5
100011|011.12.682|98|17356810|EVANGELISTA  BELLA|#42 GORDON ST.  BN  O.C.|1|AC|105|18|20180401|457.13|0|0|1.00|7|0||||||||||Mar=20|Apr=17|May=14|5
100011|011.12.673|99|836838|ENERO  PATERNO|#44 GORDON ST.  BN  O.C.|1|AC|3729|29|20180401|-52.63|0|0|1.00|7|0||||||||||Mar=25|Apr=27|May=31|5
100011|011.12.674|100|223765|ENERO  ROLANDO|#44 GORDON ST.  BN  O.C.|1|AC|2061|27|20180401|1779.37|0|0|1.00|4|0||||||||||Mar=27|Apr=28|May=27|5
100011|011.12.675|100|17360027|ENERO  RESTITA|#44 GORDON ST.  BN  O.C.|1|AC|47|13|20180401|734.50|0|0|1.00|1|0||||||||||Mar=12|Apr=15|May=23|5
100011|011.12.699|101|1606157|SANTOS  AURORA|#48 GORDON ST.  BN  O.C.|1|AC|367|13|20180401|-0.57|0|0|1.00|1|0||||||||||Mar=12|Apr=15|May=13|5
100011|011.12.700|101|1001449|SANTOS  AURORA|#48 GORDON ST.  BN  O.C.|1|AC|1674|9|20180401|-0.38|0|0|1.00|7|0||||||||||Mar=6|Apr=8|May=13|5
100011|011.12.701|101|0112261 AR|SANTOS  LEOPOLDO O.|#48 GORDON ST.  BN  O.C.|1|AC|4037|0|20180401|-0.63|0|0|1.00|4|0||||||||||Mar=0|Apr=0|May=0|5
100011|011.12.702|102|926036|BUMANLAG  LUCIA|#48 GORDON ST.  BN  O.C.|1|AC|820|6|20180401|-0.10|0|0|1.00|1|0||||||||||Mar=7|Apr=4|May=5|5
100011|011.12.703|102|108894|BUMANLAG  LUCIA|#48 GORDON ST.  BN  O.C.|1|AC|837|9|20180401|-0.81|0|0|1.00|7|0||||||||||Mar=8|Apr=6|May=7|5
100011|011.12.704|102|9616091|DE OCAMPO  FILOMENA|#46 GORDON ST.  BN  O.C.|1|AC|3291|22|20180401|-0.04|0|0|1.00|4|0||||||||||Mar=18|Apr=24|May=21|5
100011|011.12.713|102|217060|MACUL  BELLA/ACOSTA  JOSEFINA M.|#39 GORDON ST.  BN  O.C.|1|AC|3323|78|20180401|-0.52|0|0|1.00|4|0||||||||||Mar=82|Apr=86|May=76|5
100011|011.12.714|102|1429137|ACOSTA  EDNA G.|#39  GORDON ST.  BN  O.C.|1|AC|1562|40|20180401|1114.17|0|0|1.00|1|0||||||||||Mar=37|Apr=44|May=34|5
100011|011.12.705|103|1329280|SANTOS  CONSTANCIO|#46 GORDON ST.  BN  O.C.|1|AC|1230|21|20180401|-0.66|0|0|1.00|1|0||||||||||Mar=20|Apr=24|May=23|5
100011|011.12.707|104|11026112|ACUERDA  MA. CONSOLACION|#50 GORDON ST.  BN  O.C.|1|AC|3877|26|20180401|0.00|0|0|1.00|4|0||||||||||Mar=15|Apr=22|May=20|5
100011|011.12.708|104|4008142|ACUERDA  MA. CONSOLACION|#50 GORDON ST.  BN  O.C.|1|AC|2137|28|20180401|0.00|0|0|1.00|1|0||||||||||Mar=35|Apr=33|May=35|5
100011|011.12.709|105|1304350|BUMANLAG  LUCIA|#52 GORDON ST.  BN  O.C.|1|AC|3012|48|20180401|-29.55|0|0|1.00|7|0||||||||||Mar=46|Apr=47|May=48|5
100011|011.12.710|105|1606321|BUMANLAG  LUCIA|#52 GORDON ST.  BN  O.C.|1|AC|732|5|20180401|-0.46|0|0|1.00|4|0||||||||||Mar=3|Apr=4|May=4|5
100011|011.12.711|105|4093759|TAMORO  ERNESTO / BYRONE|#52 GORDON ST.  BN  O.C.|1|AC|2457|15|20180401|394.89|0|0|1.00|1|0||||||||||Mar=14|Apr=14|May=12|5
100011|011.12.020|105|163421|BUMANLAG  LUCIA G.|#52 GORDON ST. NEW BANICAIN|1|AC|806|68|20180401|-43.52|0|0|1.00|4|0||||||||||Mar=73|Apr=66|May=68|5
100011|011.12.021|105|1634222|BUMANLAG  LUCIA G.|#52 GORDON ST.  BANICAIN  O.C.|1|AC|692|81|20180401|-57.01|0|0|1.00|1|0||||||||||Mar=76|Apr=89|May=86|5
100011|011.12.729|106|637304|MACUL  BELLA|#39 GORDON ST.  NB|1|AC|4747|19|20180401|-0.58|0|0|1.00|1|0||||||||||Mar=19|Apr=21|May=22|5
100011|011.12.688|107|11026291|CONDE  HERMINIO|#38-B GORDON ST.  BN  O.C.|1|AC|1527|23|20180401|-0.91|0|0|1.00|7|0||||||||||Mar=27|Apr=19|May=21|5
100011|011.12.720|108|09027699|DORIA  RICARDO A. / ALFARO A.|#35-A GORDON ST.  BN  O.C.|1|AC|383|10|20180401|1.94|0|0|1.00|1|0||||||||||Mar=10|Apr=10|May=11|5
100011|011.12.719|109|17355375|ALFARO  CIPRIANO|#35-A GORDON ST.  BN  O.C.|1|AC|377|40|20180401|1500.43|0|0|1.00|4|0||||||||||Mar=38|Apr=44|May=44|5
100011|011.12.725|110|222443|TUAZON  ARSENIA|#37 GORDON ST. NEW BANICAIN  OC.|1|AC|1154|27|20180401|999.05|0|0|1.00|4|0||||||||||Mar=26|Apr=30|May=31|5
100011|011.12.726|110|222444|TUAZON  ARSENIA|37 GORDON ST. NEW BANICAIN  OC.|1|AC|1295|29|20180401|-0.63|0|0|1.00|1|0||||||||||Mar=29|Apr=26|May=25|5
100011|011.12.721|110|17357188|MANLANGIT  GLORIA|#35 GORDON ST.  BN  O.C.|1|AC|36|24|20180401|-12.34|0|0|1.00|7|0||||||||||Mar=49|Apr=16|May=20|5
100011|011.12.722|110|1130907|TUAZON  ARSENIA|#37 GORDON ST.  BN  O.C.|1|AC|5379|48|20180401|-0.55|0|0|1.00|4|0||||||||||Mar=44|Apr=46|May=45|5
100011|011.12.723|110|222442|TUAZON  ARSENIA|#37 GORDON ST. NEW BANICAIN  OC.|1|AC|1002|14|20180401|455.27|0|0|1.00|1|0||||||||||Mar=15|Apr=15|May=14|5
100011|011.12.724|111|222898|MIGUEL  ESPERANZA|#35 GORDON ST.  BN  O.C.|1|AC|766|15|20180401|-170.20|0|0|1.00|7|0||||||||||Mar=14|Apr=14|May=12|5
100011|011.12.727|111|1125125|MIGUEL  ESPERANZA|#35 GORDON ST.  BN  O.C.|1|AC|5889|54|20180401|1847.00|0|0|1.00|7|0||||||||||Mar=52|Apr=56|May=53|5
100011|011.12.730|112|1607027|ELIDO  SAMUEL DG|#33 GORDON ST.  BN  O.C.|1|AC|517|25|20180401|-0.65|0|0|1.00|7|0||||||||||Mar=23|Apr=28|May=21|5
100011|011.12.731|112|230937|BUENAFE  ELIDO F.|#33 GORDON ST.  BN  O.C.|1|AC|3748|28|20180401|834.92|0|0|1.00|4|0||||||||||Mar=28|Apr=29|May=31|5
100011|011.12.735|113|1233705|JORNALES  DIONISIO|#31 GORDON ST.  BN  O.C.|1|AC|5022|84|20180401|2039.48|0|0|1.00|1|0||||||||||Mar=91|Apr=82|May=58|5
100011|011.12.736|113|1233701|JORNALES  O. / LINGAD  M.|#31 GORDON ST.  BN  O.C.|1|AC|429|7|20180401|-0.13|0|0|1.00|7|0||||||||||Mar=7|Apr=6|May=7|5
100011|011.12.737|113|1233702|JORNALES  O. / LINGAD  M.|#31 GORDON ST.  BN  O.C.|1|AC|5899|88|20180401|3316.95|0|0|1.00|4|0||||||||||Mar=87|Apr=91|May=90|5
100011|011.12.740|114|9611861|MARINO  LOURDES|#29 GORDON ST.  BN  O.C.|1|AC|9026|111|20180401|-0.06|0|0|1.00|4|0||||||||||Mar=95|Apr=127|May=125|5
100011|011.12.742|115|11026296|ADONA  LOISA|#27 GORDON ST.  BN  O.C.|1|AC|964|13|20180401|-6.11|0|0|1.00|7|0||||||||||Mar=10|Apr=13|May=9|5
100011|011.12.744|116|736140|OQUIN  AGUSTINA|#27 GORDON ST.  BN  O.C.|1|AC|3577|64|20180401|2756.14|0|0|1.00|1|0||||||||||Mar=64|Apr=70|May=76|5
100011|011.12.745|116|520518|EXCIMINIANO  THOMAS|#27 GORDON  ST.  BN  O.C.|1|AC|5081|39|20180401|-152.26|0|0|1.00|7|0||||||||||Mar=33|Apr=32|May=22|5
100011|011.12.748|117|0404690|MARINO  ROMEO|#25 GORDON ST.  BN  O.C.|1|AC|7233|38|20180401|0.00|0|0|1.00|7|0||||||||||Mar=37|Apr=37|May=36|5
100011|011.12.749|117|00011123|MARINO  MERVIN|#25 GORDON ST. BANICAIN  OLONGAPO CITY|1|AC|187|13|20180401|0.00|0|0|1.00|4|0||||||||||Mar=12|Apr=17|May=16|5
100011|011.12.750|117|1627313|MARINO  MERVIN|#25 GORDON ST. BANICAIN  OLONGAPO CITY|1|AC|153|6|20180401|0.00|0|0|1.00|1|0||||||||||Mar=3|Apr=10|May=8|5
100011|011.12.752|117|1630143|MARINO  MERVIN|#25 GORDON ST. BANICAIN  OLONGAPO CITY|1|AC|58|4|20180401|0.00|0|0|1.00|4|0||||||||||Mar=1|Apr=3|May=0|5
100011|011.12.751|118|17350702|CONSUNJI  EDMUNDO|#23 GORDON ST.  BN  O.C.|1|AC|437|40|20180401|-0.38|0|0|1.00|7|0||||||||||Mar=37|Apr=44|May=43|5
100011|011.12.755|119|222198|PILLAGARA  AIDA/SONNY TUAZON|#21 GORDON ST.  BN  O.C.|1|AC|2372|48|20180401|1799.02|0|0|1.00|4|0||||||||||Mar=43|Apr=53|May=52|5
100011|011.12.759|120|17350846|LAGUA  MADELINE|#19 GORDON ST. BN  O.C.|1|AC|58|5|20180401|-0.06|0|0|1.00|1|0||||||||||Mar=4|Apr=6|May=6|5
100011|011.12.760|120|1519902|LAGUA  MADELINE|#19 GORDON ST.  BN  O.C.|1|AC|37|1|20180401|-1.96|0|0|1.00|7|0||||||||||Mar=1|Apr=2|May=1|5
100011|011.12.761|121|230442|PANIS  ROLANDO|#19-B GORDON ST.  BN  O.C.|1|AC|3258|21|20180401|81.66|0|0|1.00|4|0||||||||||Mar=18|Apr=18|May=24|5
100011|011.12.770|121|1216997|PANIS  ROLANDO/BENJAMIN P. JR.|#32 GORDON ST.  BN  O.C.|1|AC|1264|11|20180401|733.12|0|0|1.00|4|0||||||||||Mar=10|Apr=11|May=11|5
100011|011.12.764|122|0327867 AR|ARAGON  LIZA / MULI  EDNA|#17 LITTLE ST.  BN  O.C.|1|AC|4259|25|20180401|-0.52|0|0|1.00|4|0||||||||||Mar=23|Apr=30|May=31|5
100011|011.12.767|122|302701|ARAGON  LIZA S.|#17 LITTLE ST.  BN  O.C.|1|AC|2781|13|20180401|-0.67|0|0|1.00|4|0||||||||||Mar=13|Apr=16|May=34|5
100011|011.12.765|123|1130909|MOLINA  FLORANTE|#17 LITTLE ST.  BN  O.C.|1|AC|1361|26|20180401|1719.76|0|0|1.00|1|0||||||||||Mar=23|Apr=28|May=33|5
100011|011.12.766|124|1233165|MOLINA  RICARDO|#17 LITTLE ST.  BN  O.C.|1|AC|625|19|20180401|677.61|0|0|1.00|7|0||||||||||Mar=19|Apr=20|May=21|5
100011|011.12.762|124|17363040|MOLINA  EFREN F.|#17 LITTLE ST.  NB|1|AC|10|18|20180401|-0.37|0|0|1.00|1|0||||||||||Mar=23|Apr=8|May=39|5
100011|011.12.763|124|0320388 AR|SAHAGUN  DELIA M.|#17 LITTLE ST.  BN  O.C.|1|AC|2512|5|20180401|-0.21|0|0|1.00|7|0||||||||||Mar=4|Apr=5|May=1|5
100011|011.12.768|125|1519779|PAPA  LEONORA|#15 LITTLE ST.  BN  O.C.|1|AC|734|32|20180401|1114.83|0|0|1.00|1|0||||||||||Mar=29|Apr=37|May=34|5
100011|011.12.769|126|1519780|PAPA  LEONORA|#15 LITTLE ST.  BN  O.C.|1|AC|176|5|20180401|186.13|0|0|1.00|7|0||||||||||Mar=5|Apr=5|May=5|5
100011|011.12.775|127|421664|PANIS  FLORDELIZA / GREGORIO|#15 LITTLE ST.  BN  O.C.|1|AC|2409|7|20180401|217.16|0|0|1.00|7|0||||||||||Mar=7|Apr=7|May=6|5
100011|011.12.777|128|9040286|ENDRACA  DANIEL|#13 LITTLE ST. NEW BANICAIN|1|AC|341|16|20180401|-26.28|0|0|1.00|1|0||||||||||Mar=16|Apr=18|May=27|5
100011|011.12.778|128|9040288|ENDRACA  DANIEL|#13 LITTLE ST  NEW BANICAIN|1|AC|460|17|20180401|583.20|0|0|1.00|7|0||||||||||Mar=17|Apr=18|May=18|5
100011|011.12.779|128|9040021|ENDRACA  DANIEL|#13 LITTLE ST. NEW BANICAIN|1|AC|500|14|20180401|-18.41|0|0|1.00|4|0||||||||||Mar=12|Apr=8|May=10|5
100011|011.12.780|128|1512638|ENDRACA  DANIEL|#13 LITTLE ST. NEW BANICAIN|1|AC|296|19|20180401|-0.65|0|0|1.00|1|0||||||||||Mar=17|Apr=20|May=10|5
100011|011.12.781|128|9612028|ENDRACA  DANIEL|#13 LITTLE ST.  BN  O.C.|1|AC|4680|43|20180401|-0.35|0|0|1.00|7|0||||||||||Mar=42|Apr=42|May=37|5
100011|011.12.782|128|9040285|ENDRACA  DANIEL|#13 LITTLE ST. NEW BANICAIN|1|AC|430|18|20180401|-1.81|0|0|1.00|4|0||||||||||Mar=19|Apr=18|May=24|5
100011|011.12.783|128|1606463|ENDRACA  DANIEL|#13 LITTLE ST. NEW BANICAIN|1|AC|434|22|20180401|1214.98|0|0|1.00|1|0||||||||||Mar=22|Apr=21|May=17|5
100011|011.12.790|129|9810214 AR|OLASO  DOLONITA|#11 LITTLE ST.  BN  O.C.|1|AC|4427|23|20180401|-0.82|0|0|1.00|7|0||||||||||Mar=20|Apr=20|May=25|5
100011|011.12.792|130|1442679|TEJADA  ROEL|#11 LITTLE ST.  BN  O.C.|1|AC|298|7|20180401|0.00|0|0|1.00|1|0||||||||||Mar=6|Apr=8|May=8|5
100011|011.12.794|131|1442680|JAVIER  PAULINO|#9 LITTLE ST.  BN  O.C.|1|AC|1098|27|20180401|2013.43|0|1|1.00|4|0||||||||||Mar=26|Apr=28|May=32|5
100011|011.12.805|131|60567|VILLANUEVA  OFELIA|#7 LITTLE  ST.  BN  O.C.|1|AC|1269|11|20180401|-0.40|0|0|1.00|7|0||||||||||Mar=10|Apr=12|May=11|5
100011|011.12.806|131|601564|VILLANUEVA  OFELIA|#7 LITTLE  ST.  BN  O.C.|1|AC|2491|22|20180401|-45.68|0|1|1.00|4|0||||||||||Mar=21|Apr=20|May=24|5
100011|011.12.807|132|1519650|VILLANUEVA  OFELIA|#7 LITTLE ST.  BN  O.C.|1|AC|102|5|20180401|-0.91|0|0|1.00|1|0||||||||||Mar=6|Apr=4|May=4|5
100011|011.12.820|133|727264|LOZARES  ERNESTO|#5 LITTLE ST.  BN  O.C.|1|AC|5361|13|20180401|-0.93|0|0|1.00|7|0||||||||||Mar=12|Apr=16|May=16|5
100011|011.12.836|135|9040040|PINEDA  BELLA G.|#3 LITTLE ST.  BN  O.C.|1|AC|477|21|20180401|-56.19|0|0|1.00|4|0||||||||||Mar=19|Apr=27|May=21|5
100011|011.12.837|135|4008567|PINEDA  BELLA G.|#3 LITTLE ST.  BN  O.C.|1|AC|3047|27|20180401|-75.61|0|0|1.00|1|0||||||||||Mar=29|Apr=22|May=33|5
100011|011.12.847|136|1420100|SAN JUAN  RODRIGO|#1 LITTLE ST.  BN  O.C.|1|AC|2827|51|20180401|1885.69|0|0|1.00|7|0||||||||||Mar=47|Apr=54|May=54|5
100011|011.12.846|137|638189|SAN JUAN  MAMERTO|#1 LITTLE ST.  BN  O.C.|1|AC|2680|20|20180401|583.01|0|0|1.00|1|0||||||||||Mar=18|Apr=20|May=18|5
100011|011.12.862|138|1035507|SAN JUAN  CRISTINA|#1 LITTLE ST.  NB  O.C.|1|AC|2438|30|20180401|1985.03|0|0|1.00|7|0||||||||||Mar=28|Apr=32|May=29|5
100011|011.12.859|138|09040241|DOBLE  RICARDO|#1 LITTLE ST.  BN  O.C.|1|AC|987|44|20180401|-8.98|0|0|1.00|7|0||||||||||Mar=35|Apr=46|May=35|5
100011|011.12.874|139|100214|ELEUTERIO  SEVERINA|#2 1ST ST.  BN  O.C.|1|AC|2202|22|20180401|834.79|0|0|1.00|7|0||||||||||Mar=18|Apr=25|May=26|5
100011|011.12.865|139|224621|EDQUILANE  FLORDELIZA|#1 LITTLE ST.  NB  O.C.|1|AC|3499|9|20180401|-7.38|0|0|1.00|7|0||||||||||Mar=7|Apr=9|May=11|5
100011|011.12.873|140|1420125|ELEUTERIO  ELIZABETH D.|#2 1ST ST.  BN  O.C.|1|AC|1291|36|20180401|990.63|0|0|1.00|1|0||||||||||Mar=35|Apr=35|May=31|5
100011|011.12.872|141|1627203|ELEUTERIO  FELIX|#2 1ST ST.  BN  O.C.|1|AC|1108|54|20180401|2192.57|0|0|1.00|4|0||||||||||Mar=53|Apr=60|May=62|5
100011|011.12.002|141|1623379|ELEUTERIO  EDGARDO|#2 1ST ST.  NEW BANICAIN|1|AC|252|8|20180401|615.88|0|0|1.00|4|0||||||||||Mar=6|Apr=11|May=7|5
100011|011.12.885|142|1627451|TORRES  JESUS SR.|#4 1ST ST.  BN  O.C.|1|AC|191|12|20180401|701.00|0|0|1.00|1|0||||||||||Mar=14|Apr=10|May=11|5
100011|011.12.886|142|3585|HERNANDEZ  FLORA|#4 1ST ST.  BN  O.C.|1|AC|3396|9|20180401|174.07|0|0|1.00|7|0||||||||||Mar=8|Apr=9|May=5|5
100011|011.12.890|143|976349|TIJIDOR  ELIZABETH|#6 MALVAR ST.  BN  O.C.|1|AC|3054|18|20180401|-0.65|0|0|1.00|4|0||||||||||Mar=18|Apr=21|May=22|5
100011|011.12.891|144|0421803 AR|TIJIDOR  REGINALD M.|#6 1ST ST.  BN  O.C.|1|AC|3563|0|20180401|-0.16|0|0|1.00|1|0||||||||||Mar=0|Apr=0|May=0|5
100011|011.12.899|145|1606890|CUSTODIO  EMETERIA|#8 1ST ST.  BN  O.C.|1|AC|684|30|20180401|-18.46|0|0|1.00|4|0||||||||||Mar=27|Apr=28|May=32|5
100011|011.12.902|145|1606885|MAGDALUYO  AURORA|#8 1ST ST.  BN  O.C.|1|AC|108|5|20180401|-3.02|0|0|1.00|4|0||||||||||Mar=5|Apr=4|May=4|5
100011|011.12.903|145|0133536 AR|MAGDALUYO  AURORA|#8 1ST ST.  BN  O.C.|1|AC|7603|37|20180401|0.00|0|0|1.00|1|0||||||||||Mar=33|Apr=41|May=39|5
100011|011.12.904|145|17359757|MAGDALUYO  AURORA|#8 1ST ST.  BN  O.C.|1|AC|9|17|20180401|-0.36|0|0|1.00|7|0||||||||||Mar=10|Apr=24|May=16|5
100011|011.12.898|146|981314 AR|CUSTODIO  EMETERIO|#8 1ST ST.  BN  O.C.|1|AC|2743|10|20180401|0.00|0|0|1.00|7|0||||||||||Mar=13|Apr=9|May=9|5
100011|011.12.911|147|0434813 AR|GALANG  LOVELEE JOY|#10 1ST ST.  BN  O.C.|1|AC|9612|47|20180401|-21.98|0|0|1.00|4|0||||||||||Mar=41|Apr=53|May=38|5
100011|011.12.913|148|17355379|GALANG  LOVELEE JOY|#10-1ST ST.  BN  O.C.|1|AC|203|26|20180401|520.32|0|0|1.00|7|0||||||||||Mar=26|Apr=27|May=16|5
100011|011.12.924|148|1442602|LEBANON  ANGELA|#12 1ST ST.  BN  O.C.|1|AC|1648|52|20180401|3564.86|0|0|1.00|1|0||||||||||Mar=47|Apr=53|May=48|5
100011|011.12.514|148|629456|GALANG  LOVELEE JOY|#10-1ST ST.  BN  O.C.|1|AC|2204|15|20180401|-22.60|0|0|1.00|7|0||||||||||Mar=13|Apr=15|May=13|5
FTR201805012018052120180504
