HDR1000110500200020000000200000
100011|011.32.001|1|1629907|GEDARIA / BOTASTAS  FLOCERFIDA|#27 FOSTER ST.  BN  O.C.|3|AC|483|31|20180401|-0.27|0|0|1.00|7|0||||||||||Mar=30|Apr=29|May=33|5
100011|011.12.064|2|358666|MOLINA  DOMINGO JR|#17 LITTLE ST. NEW BANICAIN|1|AC|9|0|20180401|-0.55|0|0|1.00|7|0||||||||||Apr=0|Mar=0|May=9|5
100011|011.12.008|2|1235233|BOTASTAS  EMILY G.|#27 FOSTER ST.  BN  O.C.|1|AC|1296|17|20180401|-0.52|0|0|1.00|4|0||||||||||Mar=19|Apr=16|May=19|5
100011|011.12.009|2|1235234|BOTASTAS  EMILY G.|#27 FOSTER ST.  BN  O.C.|1|AC|1173|5|20180401|-0.42|0|0|1.00|1|0||||||||||Mar=4|Apr=6|May=8|5
100011|011.12.010|2|1512944|VIRTUCIO  ARMANDO|# 15 LITTLE ST. NEW BANICAIN|1|AC|463|18|20180401|583.45|0|0|1.00|7|0||||||||||Mar=16|Apr=17|May=18|5
100011|011.12.003|3|4164|NODADO  MARCELA|#27 FOSTER ST.  BN  O.C.|1|AC|1569|14|20180401|457.71|0|0|1.00|1|0||||||||||Mar=15|Apr=14|May=14|5
100011|011.12.004|3|223196|BOTASTAS  FLOCERFIDA|#27 FOSTER ST.  BN  O.C.|1|AC|1090|9|20180401|-13.45|0|0|1.00|7|0||||||||||Mar=9|Apr=8|May=6|5
100011|011.12.006|3|1629855|BOTASTAS  FLOCERFIDA|#27 FOSTER ST.  BN  O.C.|1|AC|391|14|20180401|487.23|0|0|1.00|1|0||||||||||Mar=14|Apr=15|May=13|5
100011|011.12.007|4|27115|DE MESA  LERMA|#31-B LUNA ST.  NB|1|AC|1893|39|20180401|1304.58|0|0|1.00|7|0||||||||||Mar=32|Apr=44|May=39|5
100011|011.12.005|4|1634008|DE MESA  LERMA|#31 LUNA ST.  BN  O.C.|1|AC|210|28|20180401|2443.21|0|0|1.00|4|0||||||||||Mar=27|Apr=36|May=37|5
100011|011.12.015|4|4011223|PONCE  ANGELINA LUZ|#31 LUNA ST.  BN  O.C.|1|AC|1748|9|20180401|331.68|0|0|1.00|1|0||||||||||Mar=9|Apr=8|May=10|5
100011|011.12.016|4|720187|PONCE  ANGELINA LUZ|#31 LUNA ST.  BN|1|AC|1285|9|20180401|-0.06|0|0|1.00|7|0||||||||||Mar=10|Apr=11|May=10|5
100011|011.12.017|4|720190|PONCE  ANGELINA LUZ|#31 LUNA ST.  BN|1|AC|3827|31|20180401|2010.16|0|0|1.00|4|0||||||||||Mar=29|Apr=32|May=30|5
100011|011.12.018|4|720188|PONCE  ANGELINA LUNZ|#31 LUNA ST.  BN.|1|AC|1085|8|20180401|245.90|0|0|1.00|1|0||||||||||Mar=8|Apr=7|May=7|5
100011|011.12.655|94|4089103|DRAPIZA  LEONILLY / SONE  JOSE|#38-A GORDON ST.  NB  O.C.|1|AC|3522|42|20180401|1477.25|0|0|1.00|7|1||||||||||Mar=42|Apr=46|May=48|0
100011|011.12.666|95|1700078|MANALO  EMILIANO|#40 GORDON ST.  BN  O.C.|1|AC|28|2|20180401|88.87|0|0|1.00|1|0||||||||||Mar=2|Apr=3|May=2|1
100011|011.12.661|96|1026159|INCLETO  CRISOSTOMO|#40 GORDON ST.  BN  O.C.|1|AC|8809|133|20180401|4338.65|0|0|1.00|7|0||||||||||Mar=123|Apr=137|May=115|2
100011|011.12.678|97|1430910|TAMORO  VIRGILIO|#40 GORODN ST.  BN  O.C.|1|AC|676|7|20180401|-0.46|0|0|1.00|1|0||||||||||Mar=3|Apr=0|May=7|3
100011|011.12.680|98|1634011|DIZON  AMALIA E.|#12 GORDON ST.  BN  O.C.|1|AC|520|39|20180401|1189.58|0|0|1.00|4|0||||||||||Mar=42|Apr=37|May=36|4
100011|011.12.681|98|1606065|DIZON  AMELIA E.|#42 GORDON ST.  BN  O.C.|1|AC|702|43|20180401|1230.42|0|0|1.00|1|0||||||||||Mar=44|Apr=42|May=37|4
FTR201805012018052120180504
