100054|054.12.001|||06/02/2018|2425|20180602|2125||||25|0|717.36|0.00|0|1|03|2|1|111111
100054|054.12.024|||06/02/2018|5934|20180602|2125||||21|0|605.12|0.00|0|1|03|2|1|111111
100054|054.12.233|||06/02/2018|95|20180602|2122||||0|0|0|0.00|0|0|  ||0|111111
100054|054.12.344|||06/02/2018|141|20180602|2122||||7|0|219.9|0.00|0|1|03|2|1|111111
100054|054.12.488|||06/02/2018|239|20180602|2121||||1|0|66.78|0.00|0|1|03|2|1|111111
100054|054.12.527|||06/02/2018|307|20180602|2120||||19|0|549|0.00|0|1|03|2|1|111111
100054|054.12.597|||06/02/2018|201|20180602|2124||||30|0|857.66|0.00|0|1|03|2|1|111111
100054|054.12.598|||06/02/2018|115|20180602|2123||||24|0|689.3|0.00|0|1|03|2|1|111111
100054|054.36.599|||06/02/2018|2415|20180602|2119||||467|0|21753.92|0.00|0|1|03|22|1|111111
100054|054.77.130|||06/02/2018|9473|20180602|2118||||664|0|27540.71|0.00|0|1|03|2|1|111111
