100061|06|061.33.001|||06/02/2018|308|20180602|2129||||14|0|617.85|0.00|691.99|12.36|704.35|0|1|03|20180602|2129|2|1|111111
100061|06|061.12.006|||06/02/2018|4075|20180602|2130||||46|0|1408.54|0.00|1577.56|28.17|1605.73|0|1|03|20180602|2130|2|1|111111
100061|06|061.12.003|||06/02/2018|2242|20180602|2130||||15|0|436.76|0.00|479.44|8.54|487.98|0|1|03|20180602|2131|2|1|111111
100061|06|061.12.002|||06/02/2018|84|20180602|2131||||1|0|66.78|0.00|74.62|1.33|75.95|0|1|03|20180602|2132|2|1|111111
100061|06|061.12.004|||06/02/2018|698|20180602|2132||||24|0|689.30|0.00|769.88|13.74|783.62|0|1|03|20180602|2133|2|1|111111
100061|06|061.12.005|||06/02/2018|521|20180602|2133||||11|0|324.52|0.00|689.44|13.01|702.45|0|1|03|20180602|2133|2|1|111111
100061|06|061.12.030|||06/02/2018|175|20180602|2134||||34|0|995.38|0.00|2129.17|40.19|2169.36|0|1|03|20180602|2134|2|1|111111
100061|06|061.33.091|||06/02/2018|8150|20180602|2135||||37|0|1504.96|0.00|3046.22|57.31|3103.53|0|1|03|20180602|2135|2|1|111111
100061|06|061.32.093|||06/02/2018|714|20180602|2136||||4|0|232.15|0.00|259.63|4.64|264.27|0|1|03|20180602|2136|2|1|111111
100061|06|061.12.088|||06/02/2018|1265|20180602|2136||||1|0|66.78|0.00|74.45|1.33|75.78|0|1|03|20180602|2137|2|1|111111
