100035|05|035.33.640|||05/28/2018|650|20180528|1645||||72|0|2939.39|0.00|3292.12|58.79|3350.91|4|1|01|20180528|1646|5|1|111111
100035|05|035.12.538|||05/28/2018|400|20180528|1612||||65|0|2069.06|0.00|2317.23|41.38|2358.61|4|1|01|20180528|1624|Q|1|111111
100035|05|035.12.541|||05/28/2018|100|20180528|1626||||49|0|1511.83|0.00|1692.79|30.23|1723.02|4|1|01|20180528|1627|Q|1|111111
100035|05|035.12.021|||05/28/2018|4610|20180528|1635||||50|0|1546.26|0.00|2346.40|43.22|2389.62|4|1|01|20180528|1635|RS|1|111111
100035|05|035.12.022|||05/28/2018|5600|20180528|1636||||23|0|661.24|0.00|740.29|13.22|753.51|4|1|01|20180528|1636|RS|1|111111
100035|05|035.12.310|||05/28/2018|150|20180528|1607||||49|0|1511.83|0.00|1555.42|31.11|1586.53|4|1|01|20180528|1641|Q|1|111111
100035|05|035.12.476|||05/28/2018|450|20180528|1641||||36|0|1064.24|0.00|1063.63|21.27|1084.90|4|1|01|20180528|1642|12|1|111111
100035|05|035.12.620|||05/28/2018|800|20180528|1643||||43|0|1305.25|0.00|1352.80|27.06|1379.86|4|1|01|20180528|1644|5|1|111111
100035|05|035.12.645|||05/28/2018|6400|20180528|1646||||96|0|3175.76|0.00|3556.73|63.51|3620.24|4|1|01|20180528|1647|RR|1|111111
